months,salary,bonus
January,9998-01-30,9998-02-18
February,9998-02-27,9998-03-18
March,9998-03-31,9998-04-15
April,9998-04-30,9998-05-15
May,9998-05-29,9998-06-15
June,9998-06-30,9998-07-15
July,9998-07-31,9998-08-19
August,9998-08-31,9998-09-15
September,9998-09-30,9998-10-15
October,9998-10-30,9998-11-18
November,9998-11-30,9998-12-15
December,9998-12-31,9999-01-15
